%TF.GenerationSoftware,KiCad,Pcbnew,(6.0.2)*%
%TF.CreationDate,2022-04-08T17:08:26+02:00*%
%TF.ProjectId,main,6d61696e-2e6b-4696-9361-645f70636258,V0.2*%
%TF.SameCoordinates,Original*%
%TF.FileFunction,Paste,Top*%
%TF.FilePolarity,Positive*%
%FSLAX46Y46*%
G04 Gerber Fmt 4.6, Leading zero omitted, Abs format (unit mm)*
G04 Created by KiCad (PCBNEW (6.0.2)) date 2022-04-08 17:08:26*
%MOMM*%
%LPD*%
G01*
G04 APERTURE LIST*
G04 Aperture macros list*
%AMRoundRect*
0 Rectangle with rounded corners*
0 $1 Rounding radius*
0 $2 $3 $4 $5 $6 $7 $8 $9 X,Y pos of 4 corners*
0 Add a 4 corners polygon primitive as box body*
4,1,4,$2,$3,$4,$5,$6,$7,$8,$9,$2,$3,0*
0 Add four circle primitives for the rounded corners*
1,1,$1+$1,$2,$3*
1,1,$1+$1,$4,$5*
1,1,$1+$1,$6,$7*
1,1,$1+$1,$8,$9*
0 Add four rect primitives between the rounded corners*
20,1,$1+$1,$2,$3,$4,$5,0*
20,1,$1+$1,$4,$5,$6,$7,0*
20,1,$1+$1,$6,$7,$8,$9,0*
20,1,$1+$1,$8,$9,$2,$3,0*%
G04 Aperture macros list end*
%ADD10RoundRect,0.150000X-0.150000X-0.335000X0.150000X-0.335000X0.150000X0.335000X-0.150000X0.335000X0*%
%ADD11RoundRect,0.100000X-0.300000X-0.100000X0.300000X-0.100000X0.300000X0.100000X-0.300000X0.100000X0*%
%ADD12R,1.300000X0.450000*%
%ADD13RoundRect,0.200000X-0.200000X-0.275000X0.200000X-0.275000X0.200000X0.275000X-0.200000X0.275000X0*%
%ADD14RoundRect,0.150000X0.150000X-0.825000X0.150000X0.825000X-0.150000X0.825000X-0.150000X-0.825000X0*%
%ADD15RoundRect,0.200000X0.275000X-0.200000X0.275000X0.200000X-0.275000X0.200000X-0.275000X-0.200000X0*%
%ADD16RoundRect,0.135000X0.185000X-0.135000X0.185000X0.135000X-0.185000X0.135000X-0.185000X-0.135000X0*%
%ADD17RoundRect,0.150000X-0.150000X0.512500X-0.150000X-0.512500X0.150000X-0.512500X0.150000X0.512500X0*%
%ADD18RoundRect,0.225000X-0.225000X-0.250000X0.225000X-0.250000X0.225000X0.250000X-0.225000X0.250000X0*%
%ADD19RoundRect,0.150000X-0.150000X0.587500X-0.150000X-0.587500X0.150000X-0.587500X0.150000X0.587500X0*%
%ADD20RoundRect,0.200000X0.200000X0.275000X-0.200000X0.275000X-0.200000X-0.275000X0.200000X-0.275000X0*%
%ADD21R,7.340000X6.350000*%
%ADD22RoundRect,0.135000X-0.185000X0.135000X-0.185000X-0.135000X0.185000X-0.135000X0.185000X0.135000X0*%
%ADD23RoundRect,0.200000X-0.275000X0.200000X-0.275000X-0.200000X0.275000X-0.200000X0.275000X0.200000X0*%
%ADD24R,0.900000X1.200000*%
%ADD25RoundRect,0.150000X0.825000X0.150000X-0.825000X0.150000X-0.825000X-0.150000X0.825000X-0.150000X0*%
%ADD26RoundRect,0.218750X-0.218750X-0.256250X0.218750X-0.256250X0.218750X0.256250X-0.218750X0.256250X0*%
%ADD27RoundRect,0.225000X0.250000X-0.225000X0.250000X0.225000X-0.250000X0.225000X-0.250000X-0.225000X0*%
%ADD28RoundRect,0.225000X-0.250000X0.225000X-0.250000X-0.225000X0.250000X-0.225000X0.250000X0.225000X0*%
%ADD29RoundRect,0.150000X0.150000X-0.512500X0.150000X0.512500X-0.150000X0.512500X-0.150000X-0.512500X0*%
G04 APERTURE END LIST*
D10*
%TO.C,U3*%
X143873800Y-107273800D03*
X144623800Y-108473800D03*
X144623800Y-107273800D03*
X143873800Y-108473800D03*
D11*
X142798800Y-106873800D03*
X142798800Y-107873800D03*
X142798800Y-108873800D03*
X145698800Y-108873800D03*
X145698800Y-107873800D03*
X145698800Y-106873800D03*
%TD*%
D12*
%TO.C,J5*%
X176415000Y-97825000D03*
X176415000Y-97175000D03*
X176415000Y-96525000D03*
X176415000Y-95875000D03*
X176415000Y-95225000D03*
%TD*%
D13*
%TO.C,R1*%
X143142200Y-91617800D03*
X144792200Y-91617800D03*
%TD*%
D14*
%TO.C,U4*%
X173837600Y-111364800D03*
X175107600Y-111364800D03*
X176377600Y-111364800D03*
X177647600Y-111364800D03*
X177647600Y-106414800D03*
X176377600Y-106414800D03*
X175107600Y-106414800D03*
X173837600Y-106414800D03*
%TD*%
D15*
%TO.C,R12*%
X166979600Y-93890600D03*
X166979600Y-92240600D03*
%TD*%
D16*
%TO.C,R15*%
X162433000Y-107139200D03*
X162433000Y-106119200D03*
%TD*%
D17*
%TO.C,U1*%
X144917200Y-94671300D03*
X143967200Y-94671300D03*
X143017200Y-94671300D03*
X143017200Y-96946300D03*
X144917200Y-96946300D03*
%TD*%
D18*
%TO.C,C1*%
X143141400Y-100203000D03*
X144691400Y-100203000D03*
%TD*%
D19*
%TO.C,Q1*%
X153045200Y-83339700D03*
X151145200Y-83339700D03*
X152095200Y-85214700D03*
%TD*%
D13*
%TO.C,R9*%
X126479800Y-105943400D03*
X128129800Y-105943400D03*
%TD*%
D20*
%TO.C,R6*%
X137375400Y-95224600D03*
X135725400Y-95224600D03*
%TD*%
D18*
%TO.C,C8*%
X153123600Y-88595200D03*
X154673600Y-88595200D03*
%TD*%
D13*
%TO.C,R10*%
X126352800Y-109575600D03*
X128002800Y-109575600D03*
%TD*%
D21*
%TO.C,Battery1*%
X99100000Y-140716000D03*
X177760000Y-140716000D03*
%TD*%
D22*
%TO.C,R13*%
X164998400Y-106144600D03*
X164998400Y-107164600D03*
%TD*%
D23*
%TO.C,R11*%
X169087800Y-92062800D03*
X169087800Y-93712800D03*
%TD*%
D18*
%TO.C,C3*%
X133387800Y-91668600D03*
X134937800Y-91668600D03*
%TD*%
D16*
%TO.C,R14*%
X166166800Y-90324400D03*
X166166800Y-89304400D03*
%TD*%
D20*
%TO.C,R3*%
X166065200Y-84683600D03*
X164415200Y-84683600D03*
%TD*%
D15*
%TO.C,R7*%
X149885400Y-110857800D03*
X149885400Y-109207800D03*
%TD*%
D24*
%TO.C,D3*%
X166167800Y-100253800D03*
X169467800Y-100253800D03*
%TD*%
D25*
%TO.C,U5*%
X156297400Y-100812600D03*
X156297400Y-99542600D03*
X156297400Y-98272600D03*
X156297400Y-97002600D03*
X156297400Y-95732600D03*
X156297400Y-94462600D03*
X156297400Y-93192600D03*
X156297400Y-91922600D03*
X151347400Y-91922600D03*
X151347400Y-93192600D03*
X151347400Y-94462600D03*
X151347400Y-95732600D03*
X151347400Y-97002600D03*
X151347400Y-98272600D03*
X151347400Y-99542600D03*
X151347400Y-100812600D03*
%TD*%
D26*
%TO.C,D1*%
X127888900Y-98526600D03*
X129463900Y-98526600D03*
%TD*%
D16*
%TO.C,R16*%
X169392600Y-90375200D03*
X169392600Y-89355200D03*
%TD*%
D27*
%TO.C,C6*%
X138836400Y-108953600D03*
X138836400Y-107403600D03*
%TD*%
D18*
%TO.C,C5*%
X151320200Y-80060800D03*
X152870200Y-80060800D03*
%TD*%
D26*
%TO.C,D2*%
X135712100Y-98552000D03*
X137287100Y-98552000D03*
%TD*%
D28*
%TO.C,C2*%
X160528000Y-80759000D03*
X160528000Y-82309000D03*
%TD*%
D13*
%TO.C,R2*%
X164325800Y-80746600D03*
X165975800Y-80746600D03*
%TD*%
D20*
%TO.C,R5*%
X129552200Y-95173800D03*
X127902200Y-95173800D03*
%TD*%
D29*
%TO.C,U2*%
X178221600Y-82823900D03*
X179171600Y-82823900D03*
X180121600Y-82823900D03*
X180121600Y-80548900D03*
X178221600Y-80548900D03*
%TD*%
D15*
%TO.C,R8*%
X149885400Y-106311200D03*
X149885400Y-104661200D03*
%TD*%
D24*
%TO.C,D4*%
X166193200Y-96443800D03*
X169493200Y-96443800D03*
%TD*%
D20*
%TO.C,R4*%
X161442400Y-84709000D03*
X159792400Y-84709000D03*
%TD*%
D28*
%TO.C,C4*%
X183134000Y-80759000D03*
X183134000Y-82309000D03*
%TD*%
D18*
%TO.C,C7*%
X163029600Y-109806200D03*
X164579600Y-109806200D03*
%TD*%
M02*
