(kicad_sch (version 20211123) (generator eeschema)

  (uuid ac94c12d-1e2f-4700-9b45-563c04d5170a)

  (paper "A4")

  (title_block
    (title "Output schematics")
    (date "2022-03-09")
    (rev "V0.0")
    (company "University of Cape Town")
    (comment 4 "@Authors: Ryan Silverman, Jason Peyron and Natasha Soldin")
  )

  (lib_symbols
    (symbol "Device:Buzzer" (pin_names (offset 0.0254) hide) (in_bom yes) (on_board yes)
      (property "Reference" "BZ" (id 0) (at 3.81 1.27 0)
        (effects (font (size 1.27 1.27)) (justify left))
      )
      (property "Value" "Buzzer" (id 1) (at 3.81 -1.27 0)
        (effects (font (size 1.27 1.27)) (justify left))
      )
      (property "Footprint" "" (id 2) (at -0.635 2.54 90)
        (effects (font (size 1.27 1.27)) hide)
      )
      (property "Datasheet" "~" (id 3) (at -0.635 2.54 90)
        (effects (font (size 1.27 1.27)) hide)
      )
      (property "ki_keywords" "quartz resonator ceramic" (id 4) (at 0 0 0)
        (effects (font (size 1.27 1.27)) hide)
      )
      (property "ki_description" "Buzzer, polarized" (id 5) (at 0 0 0)
        (effects (font (size 1.27 1.27)) hide)
      )
      (property "ki_fp_filters" "*Buzzer*" (id 6) (at 0 0 0)
        (effects (font (size 1.27 1.27)) hide)
      )
      (symbol "Buzzer_0_1"
        (arc (start 0 -3.175) (mid 3.175 0) (end 0 3.175)
          (stroke (width 0) (type default) (color 0 0 0 0))
          (fill (type none))
        )
        (polyline
          (pts
            (xy -1.651 1.905)
            (xy -1.143 1.905)
          )
          (stroke (width 0) (type default) (color 0 0 0 0))
          (fill (type none))
        )
        (polyline
          (pts
            (xy -1.397 2.159)
            (xy -1.397 1.651)
          )
          (stroke (width 0) (type default) (color 0 0 0 0))
          (fill (type none))
        )
        (polyline
          (pts
            (xy 0 3.175)
            (xy 0 -3.175)
          )
          (stroke (width 0) (type default) (color 0 0 0 0))
          (fill (type none))
        )
      )
      (symbol "Buzzer_1_1"
        (pin passive line (at -2.54 2.54 0) (length 2.54)
          (name "-" (effects (font (size 1.27 1.27))))
          (number "1" (effects (font (size 1.27 1.27))))
        )
        (pin passive line (at -2.54 -2.54 0) (length 2.54)
          (name "+" (effects (font (size 1.27 1.27))))
          (number "2" (effects (font (size 1.27 1.27))))
        )
      )
    )
    (symbol "power:GND" (power) (pin_names (offset 0)) (in_bom yes) (on_board yes)
      (property "Reference" "#PWR" (id 0) (at 0 -6.35 0)
        (effects (font (size 1.27 1.27)) hide)
      )
      (property "Value" "GND" (id 1) (at 0 -3.81 0)
        (effects (font (size 1.27 1.27)))
      )
      (property "Footprint" "" (id 2) (at 0 0 0)
        (effects (font (size 1.27 1.27)) hide)
      )
      (property "Datasheet" "" (id 3) (at 0 0 0)
        (effects (font (size 1.27 1.27)) hide)
      )
      (property "ki_keywords" "power-flag" (id 4) (at 0 0 0)
        (effects (font (size 1.27 1.27)) hide)
      )
      (property "ki_description" "Power symbol creates a global label with name \"GND\" , ground" (id 5) (at 0 0 0)
        (effects (font (size 1.27 1.27)) hide)
      )
      (symbol "GND_0_1"
        (polyline
          (pts
            (xy 0 0)
            (xy 0 -1.27)
            (xy 1.27 -1.27)
            (xy 0 -2.54)
            (xy -1.27 -1.27)
            (xy 0 -1.27)
          )
          (stroke (width 0) (type default) (color 0 0 0 0))
          (fill (type none))
        )
      )
      (symbol "GND_1_1"
        (pin power_in line (at 0 0 270) (length 0) hide
          (name "GND" (effects (font (size 1.27 1.27))))
          (number "1" (effects (font (size 1.27 1.27))))
        )
      )
    )
  )


  (polyline (pts (xy 115.57 90.17) (xy 115.57 116.84))
    (stroke (width 0) (type default) (color 0 0 0 0))
    (uuid 0afdded9-f55e-469b-b7ad-56c19dd81fc0)
  )
  (polyline (pts (xy 157.48 116.84) (xy 115.57 116.84))
    (stroke (width 0) (type default) (color 0 0 0 0))
    (uuid 1bf150ec-9c0f-4e87-b671-9df3cbc597eb)
  )

  (wire (pts (xy 129.54 102.87) (xy 132.08 102.87))
    (stroke (width 0) (type default) (color 0 0 0 0))
    (uuid 3c3f70a3-12e4-4a6e-a775-3864fc419aaa)
  )
  (wire (pts (xy 123.19 97.79) (xy 132.08 97.79))
    (stroke (width 0) (type default) (color 0 0 0 0))
    (uuid a464f4c2-8295-4ccb-b9d3-eb2eebf1aa74)
  )
  (polyline (pts (xy 115.57 90.17) (xy 157.48 90.17))
    (stroke (width 0) (type default) (color 0 0 0 0))
    (uuid ce232a16-9598-4b34-8740-828e9fbc39fb)
  )

  (wire (pts (xy 123.19 97.79) (xy 123.19 96.52))
    (stroke (width 0) (type default) (color 0 0 0 0))
    (uuid dc360951-cf01-42c8-bf2b-13d0ae0e5557)
  )
  (polyline (pts (xy 157.48 90.17) (xy 157.48 116.84))
    (stroke (width 0) (type default) (color 0 0 0 0))
    (uuid e157fe1b-c762-4f45-9ebb-143dcab34cbe)
  )

  (text "BUZZER\n" (at 130.81 114.3 0)
    (effects (font (size 2 2)) (justify left bottom))
    (uuid 2bb19161-2d28-4da5-a59b-7a85025aba59)
  )
  (text "Not sure if you want this here:\n\nGP LEDS\nPushButton or 2 for testing\nUSB Connector\nTesting Connector\nJumpers for debugging and inserting signals"
    (at 126.365 86.36 0)
    (effects (font (size 1.27 1.27)) (justify left bottom))
    (uuid ed0570b7-a7a2-464c-be6e-20e69ad86ee9)
  )

  (label "MCU_OUT" (at 123.19 96.52 0)
    (effects (font (size 1.27 1.27)) (justify left bottom))
    (uuid 192a7c50-4025-4f75-9d79-8d23ace4a36c)
  )

  (symbol (lib_id "power:GND") (at 129.54 102.87 0) (unit 1)
    (in_bom yes) (on_board yes) (fields_autoplaced)
    (uuid 509d7668-45f9-4dc3-8a4c-60905e569035)
    (property "Reference" "#PWR043" (id 0) (at 129.54 109.22 0)
      (effects (font (size 1.27 1.27)) hide)
    )
    (property "Value" "GND" (id 1) (at 129.54 107.95 0))
    (property "Footprint" "" (id 2) (at 129.54 102.87 0)
      (effects (font (size 1.27 1.27)) hide)
    )
    (property "Datasheet" "" (id 3) (at 129.54 102.87 0)
      (effects (font (size 1.27 1.27)) hide)
    )
    (pin "1" (uuid 27161fa2-72ab-42e9-b157-ff8156e63068))
  )

  (symbol (lib_id "Device:Buzzer") (at 134.62 100.33 0) (unit 1)
    (in_bom yes) (on_board yes) (fields_autoplaced)
    (uuid c741f07f-16d4-4098-9c19-487951462652)
    (property "Reference" "BZ1" (id 0) (at 138.43 99.0599 0)
      (effects (font (size 1.27 1.27)) (justify left))
    )
    (property "Value" "Buzzer" (id 1) (at 138.43 101.5999 0)
      (effects (font (size 1.27 1.27)) (justify left))
    )
    (property "Footprint" "" (id 2) (at 133.985 97.79 90)
      (effects (font (size 1.27 1.27)) hide)
    )
    (property "Datasheet" "~" (id 3) (at 133.985 97.79 90)
      (effects (font (size 1.27 1.27)) hide)
    )
    (pin "1" (uuid c51463e5-ed4c-406e-a231-df20e5ecea5e))
    (pin "2" (uuid 3df4749f-c30a-4c70-af99-7594af3b884f))
  )
)
